<?xml version="1.0" encoding="UTF-8" standalone="no"?>
<svg
   xmlns:dc="http://purl.org/dc/elements/1.1/"
   xmlns:cc="http://creativecommons.org/ns#"
   xmlns:rdf="http://www.w3.org/1999/02/22-rdf-syntax-ns#"
   xmlns:svg="http://www.w3.org/2000/svg"
   xmlns="http://www.w3.org/2000/svg"
   xmlns:sodipodi="http://sodipodi.sourceforge.net/DTD/sodipodi-0.dtd"
   xmlns:inkscape="http://www.inkscape.org/namespaces/inkscape"
   sodipodi:docname="mcg.svg"
   inkscape:version="1.0 (4035a4fb49, 2020-05-01)"
   id="svg8"
   version="1.1"
   viewBox="0 0 67.733333 67.733335"
   height="256"
   width="256">
  <title
     id="title4619">CoverGrid (mcg)</title>
  <defs
     id="defs2">
    <filter
       id="filter4516"
       inkscape:label="Drop Shadow"
       style="color-interpolation-filters:sRGB">
      <feFlood
         id="feFlood4506"
         result="flood"
         flood-color="rgb(255,255,255)"
         flood-opacity="0.498039" />
      <feComposite
         id="feComposite4508"
         result="composite1"
         operator="in"
         in2="SourceGraphic"
         in="flood" />
      <feGaussianBlur
         id="feGaussianBlur4510"
         result="blur"
         stdDeviation="7"
         in="composite1" />
      <feOffset
         id="feOffset4512"
         result="offset"
         dy="6"
         dx="6" />
      <feComposite
         id="feComposite4514"
         result="composite2"
         operator="over"
         in2="offset"
         in="SourceGraphic" />
    </filter>
  </defs>
  <sodipodi:namedview
     inkscape:document-rotation="0"
     inkscape:snap-to-guides="true"
     inkscape:snap-grids="true"
     inkscape:showpageshadow="false"
     showborder="true"
     inkscape:pagecheckerboard="true"
     units="px"
     inkscape:window-maximized="1"
     inkscape:window-y="0"
     inkscape:window-x="0"
     inkscape:window-height="1030"
     inkscape:window-width="1916"
     inkscape:guide-bbox="true"
     showguides="true"
     showgrid="false"
     inkscape:current-layer="layer1"
     inkscape:document-units="mm"
     inkscape:cy="490.36801"
     inkscape:cx="311.30244"
     inkscape:zoom="0.7"
     inkscape:pageshadow="2"
     inkscape:pageopacity="0.0"
     borderopacity="1.0"
     bordercolor="#666666"
     pagecolor="#ffffff"
     id="base">
    <sodipodi:guide
       inkscape:locked="false"
       id="guide4676"
       orientation="0,1"
       position="319.76785,-21.166667" />
  </sodipodi:namedview>
  <metadata
     id="metadata5">
    <rdf:RDF>
      <cc:Work
         rdf:about="">
        <dc:format>image/svg+xml</dc:format>
        <dc:type
           rdf:resource="http://purl.org/dc/dcmitype/StillImage" />
        <dc:title>CoverGrid (mcg)</dc:title>
        <dc:date>2017</dc:date>
        <dc:creator>
          <cc:Agent>
            <dc:title>coderkun</dc:title>
          </cc:Agent>
        </dc:creator>
        <dc:description>https://www.suruatoel.xyz/codes/mcg</dc:description>
        <cc:license
           rdf:resource="http://creativecommons.org/licenses/by-nc-nd/4.0/" />
      </cc:Work>
      <cc:License
         rdf:about="http://creativecommons.org/licenses/by-nc-nd/4.0/">
        <cc:permits
           rdf:resource="http://creativecommons.org/ns#Reproduction" />
        <cc:permits
           rdf:resource="http://creativecommons.org/ns#Distribution" />
        <cc:requires
           rdf:resource="http://creativecommons.org/ns#Notice" />
        <cc:requires
           rdf:resource="http://creativecommons.org/ns#Attribution" />
        <cc:prohibits
           rdf:resource="http://creativecommons.org/ns#CommercialUse" />
      </cc:License>
    </rdf:RDF>
  </metadata>
  <g
     transform="translate(0,-26.06665)"
     id="layer1"
     inkscape:groupmode="layer"
     inkscape:label="Ebene 1">
    <g
       transform="matrix(0.253073,0,0,0.25346533,-0.4687123,18.990219)"
       id="g4504">
      <rect
         style="fill:#000000;fill-opacity:1;stroke:none;stroke-width:0.264583;stroke-miterlimit:4;stroke-dasharray:none;stroke-opacity:1"
         id="rect4487"
         width="87.841667"
         height="87.841667"
         x="91.54583"
         y="117.61248" />
      <rect
         style="fill:#5f3262;fill-opacity:1;stroke:none;stroke-width:0.264583;stroke-miterlimit:4;stroke-dasharray:none;stroke-opacity:1"
         id="rect4487-1"
         width="87.841667"
         height="87.841667"
         x="91.54583"
         y="27.918732" />
      <rect
         style="fill:#9ba38f;fill-opacity:1;stroke:none;stroke-width:0.264583;stroke-miterlimit:4;stroke-dasharray:none;stroke-opacity:1"
         id="rect4487-8"
         width="87.841667"
         height="87.841667"
         x="181.23958"
         y="-115.7604"
         transform="scale(1,-1)" />
      <rect
         style="fill:#9aa0af;fill-opacity:1;stroke:none;stroke-width:0.264583;stroke-miterlimit:4;stroke-dasharray:none;stroke-opacity:1"
         id="rect4487-19"
         width="87.841667"
         height="87.841667"
         x="181.23958"
         y="207.30624" />
      <rect
         style="fill:#e62a7c;fill-opacity:1;stroke:none;stroke-width:0.264583;stroke-miterlimit:4;stroke-dasharray:none;stroke-opacity:1"
         id="rect4487-7"
         width="87.841667"
         height="87.841667"
         x="181.23958"
         y="117.61248" />
      <rect
         style="fill:#c5d0f2;fill-opacity:1;stroke:none;stroke-width:1.05833;stroke-miterlimit:4;stroke-dasharray:none;stroke-opacity:1"
         id="rect4487-2"
         width="87.841667"
         height="87.841667"
         x="1.8520833"
         y="27.918732" />
      <rect
         style="fill:#9a0c98;fill-opacity:1;stroke:none;stroke-width:0.264583;stroke-miterlimit:4;stroke-dasharray:none;stroke-opacity:1"
         id="rect4487-23"
         width="87.841667"
         height="87.841667"
         x="91.54583"
         y="207.30623" />
      <rect
         style="fill:#e4cec8;fill-opacity:1;stroke:none;stroke-width:0.264583;stroke-miterlimit:4;stroke-dasharray:none;stroke-opacity:1"
         id="rect4487-66"
         width="87.841667"
         height="87.841667"
         x="1.8520833"
         y="207.30623" />
      <rect
         style="fill:#fd6bfc;fill-opacity:1;stroke:none;stroke-width:0.264583;stroke-miterlimit:4;stroke-dasharray:none;stroke-opacity:1"
         id="rect4487-4"
         width="87.841667"
         height="87.841667"
         x="1.8520833"
         y="117.61248" />
    </g>
    <path
       transform="matrix(0.30742717,0,0,0.30790377,0,18.04063)"
       inkscape:transform-center-y="-0.54802213"
       inkscape:transform-center-x="5.196062"
       d="M 204.82033,136.72273 50.691586,224.82232 51.459481,47.293117 Z"
       inkscape:randomized="0"
       inkscape:rounded="0"
       inkscape:flatsided="true"
       sodipodi:arg2="1.051523"
       sodipodi:arg1="0.0043254268"
       sodipodi:r2="97.404572"
       sodipodi:r1="102.49749"
       sodipodi:cy="136.27939"
       sodipodi:cx="102.3238"
       sodipodi:sides="3"
       id="path4661"
       style="opacity:0.58;fill:#000000;fill-opacity:1;stroke-width:0.980952;filter:url(#filter4516)"
       sodipodi:type="star" />
  </g>
</svg>
